<?xml version="1.0" standalone="no"?>
<!DOCTYPE svg PUBLIC "-//W3C//DTD SVG 20010904//EN"
 "http://www.w3.org/TR/2001/REC-SVG-20010904/DTD/svg10.dtd">
<svg version="1.0" xmlns="http://www.w3.org/2000/svg"
 width="300.000000pt" height="300.000000pt" viewBox="0 0 300.000000 300.000000"
 preserveAspectRatio="xMidYMid meet">
<metadata>
Created by potrace 1.11, written by Peter Selinger 2001-2013
</metadata>
<g transform="translate(0.000000,300.000000) scale(0.100000,-0.100000)"
fill="#000000" stroke="none">
<path d="M1955 2979 c-7 -11 -9 -30 -20 -219 -12 -210 -25 -361 -31 -371 -2
-4 -6 -24 -10 -45 -3 -22 -14 -77 -24 -124 -21 -95 -23 -107 -46 -235 -29
-170 -83 -341 -114 -360 -4 -3 -9 34 -9 83 -2 113 -9 253 -15 322 -23 246 -27
446 -10 565 8 55 13 116 12 135 -3 31 -6 35 -32 35 -26 0 -30 -5 -46 -58 -10
-31 -20 -76 -23 -100 -3 -23 -11 -64 -18 -92 -13 -53 -15 -762 -3 -1234 6
-262 3 -272 -51 -144 -16 38 -49 111 -75 163 -50 102 -66 143 -74 202 -3 21
-10 57 -15 80 -9 37 -18 91 -36 208 -2 14 -7 59 -10 100 -7 74 -16 93 -41 83
-20 -7 -23 -35 -22 -226 0 -230 7 -278 68 -462 27 -82 51 -163 54 -178 14 -77
58 -191 110 -282 22 -38 43 -72 47 -75 17 -13 22 -69 25 -245 3 -191 17 -288
45 -306 7 -4 28 -1 47 7 19 8 52 14 73 14 52 0 60 18 42 94 -8 34 -17 75 -20
91 -2 17 -6 239 -7 495 -3 527 -8 488 83 645 75 131 112 256 126 435 9 122 13
151 39 290 8 47 17 101 20 120 10 74 28 196 32 220 12 67 0 330 -17 362 -11
20 -44 24 -54 7z"/>
<path d="M162 2917 c-18 -18 -36 -47 -41 -63 -8 -31 -7 -377 2 -454 3 -25 8
-74 12 -110 3 -36 8 -72 10 -80 3 -8 7 -29 9 -45 2 -17 11 -60 20 -96 17 -69
21 -97 31 -214 4 -38 13 -102 21 -141 16 -80 122 -331 243 -574 l79 -159 6
-103 c4 -57 9 -130 11 -163 3 -33 7 -94 10 -135 12 -195 17 -258 20 -295 2
-22 6 -80 10 -130 4 -50 11 -94 16 -100 12 -12 92 -34 150 -42 39 -4 50 -2 68
16 25 25 26 50 4 122 -9 30 -17 70 -18 89 -2 19 -5 69 -9 110 -4 41 -9 104
-11 140 -3 36 -7 97 -11 137 -5 62 -3 74 14 91 27 27 103 264 118 365 2 15 6
40 8 56 6 43 15 151 22 271 3 58 7 123 10 145 2 22 6 160 10 308 5 242 4 268
-11 273 -9 4 -27 1 -41 -6 -35 -19 -50 -88 -59 -270 -13 -263 -23 -393 -40
-525 -15 -116 -44 -227 -69 -260 -15 -20 -15 -20 -17 0 -4 45 -7 62 -17 95
-10 34 -15 61 -28 145 -3 22 -12 65 -20 96 -7 31 -16 76 -19 100 -6 47 -12 88
-20 129 -3 14 -7 40 -10 57 -3 18 -12 61 -20 95 -23 99 -26 162 -29 494 -2
171 -6 315 -9 321 -4 6 -19 14 -34 18 -16 3 -36 14 -45 22 -10 9 -19 14 -19
12 -15 -54 -23 -474 -15 -779 4 -113 7 -232 8 -265 1 -33 5 -75 10 -93 17 -62
2 -57 -37 13 -70 125 -83 172 -121 460 -3 28 -8 53 -10 56 -11 20 -42 265 -50
397 -3 59 -7 118 -9 132 -3 13 -7 99 -11 190 -3 91 -8 168 -11 173 -9 15 -30
6 -61 -26z"/>
<path d="M2442 2902 c-7 -5 -15 -29 -17 -53 -3 -24 -7 -62 -10 -84 -2 -22 -5
-76 -6 -120 -1 -44 -6 -91 -11 -105 -6 -14 -12 -189 -14 -390 -6 -550 -11
-650 -29 -668 -3 -3 -6 8 -7 24 0 16 -2 34 -3 39 -1 6 -5 35 -9 65 -4 30 -9
62 -11 70 -2 8 -6 35 -9 60 -15 99 -38 227 -47 264 -11 41 -12 121 -5 271 3
50 8 147 11 217 3 69 10 141 16 160 7 27 6 35 -8 46 -9 6 -22 12 -29 12 -19 0
-54 -33 -58 -55 -3 -11 -9 -42 -16 -70 -20 -88 -30 -607 -15 -765 8 -86 110
-545 142 -640 31 -93 34 -234 9 -390 -3 -14 -7 -56 -11 -95 -9 -99 -34 -213
-56 -259 -13 -27 -19 -61 -19 -107 0 -80 12 -94 86 -98 26 -1 55 -6 65 -12 26
-13 96 -11 101 4 3 6 2 46 -1 87 -3 41 -6 118 -5 170 l1 95 88 205 c83 194
121 301 179 503 27 91 91 357 101 418 3 19 8 41 10 49 2 8 7 39 10 69 4 30 8
63 11 74 2 11 6 63 10 116 3 53 7 119 9 146 2 28 7 131 10 231 8 202 5 212
-53 171 -34 -24 -37 -36 -47 -172 -3 -44 -8 -107 -11 -140 -2 -33 -6 -89 -9
-126 -2 -36 -11 -85 -20 -110 -19 -53 -18 -46 -50 -239 -14 -85 -28 -161 -30
-169 -3 -7 -12 -45 -21 -85 -21 -98 -18 -88 -63 -216 -46 -128 -118 -286 -127
-277 -6 6 -5 189 1 302 2 33 6 125 10 205 4 80 8 161 10 180 14 138 20 315 19
565 -1 232 -9 620 -13 633 -2 6 -47 1 -59 -6z"/>
</g>
</svg>
